Scoped functions do dplyr | Posts
…
require(dplyr)

as_tibble(x = iris)

# A tibble: 150 x 5
   Sepal.Length Sepal.Width Petal.Length Petal.Width Species
          <dbl>       <dbl>        <dbl>       <dbl> <fct>  
 1          5.1         3.5          1.4         0.2 setosa 
 2          4.9         3            1.4         0.2 setosa 
 3          4.7         3.2          1.3         0.2 setosa 
 4          4.6         3.1          1.5         0.2 setosa 
 5          5           3.6          1.4         0.2 setosa 
 6          5.4         3.9          1.7         0.4 setosa 
 7          4.6         3.4          1.4         0.3 setosa 
 8          5           3.4          1.5         0.2 setosa 
 9          4.4         2.9          1.4         0.2 setosa 
10          4.9         3.1          1.5         0.1 setosa 
# ... with 140 more rows
…
Agora iremos transformar todas as colunas de maneira a estarem na escala \([0, 1]\). Como a coluna de espécies não é numérica, então vamos tranformá-la numa variável de grupo. Assim a função _all não se aplicará para ela. Note que poderemos criar uma função para fazer a tarefa desejada.

iris %>% 
  group_by(Species) %>% 
  mutate_all(.funs = function(x){ x / max(x) })

`mutate_all()` ignored the following grouping variables:
Column `Species`
Use `mutate_at(df, vars(-group_cols()), myoperation)` to silence the message.

# A tibble: 150 x 5
# Groups:   Species [3]
   Sepal.Length Sepal.Width Petal.Length Petal.Width Species
          <dbl>       <dbl>        <dbl>       <dbl> <fct>  
 1        0.879       0.795        0.737       0.333 setosa 
 2        0.845       0.682        0.737       0.333 setosa 
 3        0.810       0.727        0.684       0.333 setosa 
 4        0.793       0.705        0.789       0.333 setosa 
 5        0.862       0.818        0.737       0.333 setosa 
 6        0.931       0.886        0.895       0.667 setosa 
 7        0.793       0.773        0.737       0.5   setosa 
 8        0.862       0.773        0.789       0.333 setosa 
 9        0.759       0.659        0.737       0.333 setosa 
10        0.845       0.705        0.789       0.167 setosa 
# ... with 140 more rows

Para o summarise_all e mutate_all, a função só será aplicada para as colunas que não sejam de grupos. Já o filter_all, faz o filtro para todas as variáveis. Sendo assim, iremos descartar a variável Species antes de fazer o filtro.

Vamos filtrar para que todas as variáveis sejam maiores que \(1,5\):

iris %>% 
  select(-Species) %>% 
  filter_all(.vars_predicate = all_vars(. > 1.5))

# A tibble: 52 x 4
   Sepal.Length Sepal.Width Petal.Length Petal.Width
          <dbl>       <dbl>        <dbl>       <dbl>
 1          6.3         3.3          4.7         1.6
 2          5.9         3.2          4.8         1.8
 3          6.7         3            5           1.7
 4          6           2.7          5.1         1.6
 5          6           3.4          4.5         1.6
 6          6.3         3.3          6           2.5
 7          5.8         2.7          5.1         1.9
 8          7.1         3            5.9         2.1
 9          6.3         2.9          5.6         1.8
10          6.5         3            5.8         2.2
# ... with 42 more rows
…
Podemos, de duas maneiras, modificar os nomes de todas as colunas:

iris %>% 
  select_all(.funs = toupper) # ou rename_all(toupper)

# A tibble: 150 x 5
   SEPAL.LENGTH SEPAL.WIDTH PETAL.LENGTH PETAL.WIDTH SPECIES
          <dbl>       <dbl>        <dbl>       <dbl> <fct>  
 1          5.1         3.5          1.4         0.2 setosa 
 2          4.9         3            1.4         0.2 setosa 
 3          4.7         3.2          1.3         0.2 setosa 
 4          4.6         3.1          1.5         0.2 setosa 
 5          5           3.6          1.4         0.2 setosa 
 6          5.4         3.9          1.7         0.4 setosa 
 7          4.6         3.4          1.4         0.3 setosa 
 8          5           3.4          1.5         0.2 setosa 
 9          4.4         2.9          1.4         0.2 setosa 
10          4.9         3.1          1.5         0.1 setosa 
# ... with 140 more rows
…
iris %>% 
  summarise_at(.vars = vars(-Species), .funs = mean)

# A tibble: 1 x 4
  Sepal.Length Sepal.Width Petal.Length Petal.Width
         <dbl>       <dbl>        <dbl>       <dbl>
1         5.84        3.06         3.76        1.20

Também podemos utilizar as help functions. Neste caso multiplicaremos por \(100\) as colunas que terminam com “Length”:

iris %>% 
  mutate_at(.vars = vars(ends_with("Length")), .funs =  funs(. * 100))

# A tibble: 150 x 5
   Sepal.Length Sepal.Width Petal.Length Petal.Width Species
          <dbl>       <dbl>        <dbl>       <dbl> <fct>  
 1         510.         3.5          140         0.2 setosa 
 2         490.         3            140         0.2 setosa 
 3         470          3.2          130         0.2 setosa 
 4         460.         3.1          150         0.2 setosa 
 5         500          3.6          140         0.2 setosa 
 6         540          3.9          170         0.4 setosa 
 7         460.         3.4          140         0.3 setosa 
 8         500          3.4          150         0.2 setosa 
 9         440.         2.9          140         0.2 setosa 
10         490.         3.1          150         0.1 setosa 
# ... with 140 more rows
…
