…
require(dplyr)

as_tibble(x = iris)

# A tibble: 150 x 5
   Sepal.Length Sepal.Width Petal.Length Petal.Width Species
          <dbl>       <dbl>        <dbl>       <dbl> <fct>  
 1         5.10        3.50         1.40       0.200 setosa 
 2         4.90        3.00         1.40       0.200 setosa 
 3         4.70        3.20         1.30       0.200 setosa 
 4         4.60        3.10         1.50       0.200 setosa 
 5         5.00        3.60         1.40       0.200 setosa 
 6         5.40        3.90         1.70       0.400 setosa 
 7         4.60        3.40         1.40       0.300 setosa 
 8         5.00        3.40         1.50       0.200 setosa 
 9         4.40        2.90         1.40       0.200 setosa 
10         4.90        3.10         1.50       0.100 setosa 
# ... with 140 more rows
…
# A tibble: 3 x 5
  Species    Sepal.Length Sepal.Width Petal.Length Petal.Width
  <fct>             <dbl>       <dbl>        <dbl>       <dbl>
1 setosa             5.01        3.43         1.46       0.246
2 versicolor         5.94        2.77         4.26       1.33 
3 virginica          6.59        2.97         5.55       2.03 

Agora iremos transformar todas as colunas de maneira a estarem na escala \([0, 1]\). Como a coluna de espécies não é numérica, então vamos tranformá-la numa variável de grupo. Assim a função _all não se aplicará para ela. Note que poderemos criar uma função para fazer a tarefa desejada.

iris %>% 
  group_by(Species) %>% 
  mutate_all(.funs = function(x){ x / max(x) })

# A tibble: 150 x 5
# Groups:   Species [3]
   Sepal.Length Sepal.Width Petal.Length Petal.Width Species
          <dbl>       <dbl>        <dbl>       <dbl> <fct>  
 1        0.879       0.795        0.737       0.333 setosa 
 2        0.845       0.682        0.737       0.333 setosa 
 3        0.810       0.727        0.684       0.333 setosa 
 4        0.793       0.705        0.789       0.333 setosa 
 5        0.862       0.818        0.737       0.333 setosa 
 6        0.931       0.886        0.895       0.667 setosa 
 7        0.793       0.773        0.737       0.500 setosa 
 8        0.862       0.773        0.789       0.333 setosa 
 9        0.759       0.659        0.737       0.333 setosa 
10        0.845       0.705        0.789       0.167 setosa 
# ... with 140 more rows

Para o summarise_all e mutate_all, a função só será aplicada para as colunas que não sejam de grupos. Já o filter_all, faz o filtro para todas as variáveis. Sendo assim, iremos descartar a variável Species antes de fazer o filtro.

Vamos filtrar para que todas as variáveis sejam maiores que \(1,5\):

iris %>% 
  select(-Species) %>% 
  filter_all(.vars_predicate = all_vars(. > 1.5))

# A tibble: 52 x 4
   Sepal.Length Sepal.Width Petal.Length Petal.Width
          <dbl>       <dbl>        <dbl>       <dbl>
 1         6.30        3.30         4.70        1.60
 2         5.90        3.20         4.80        1.80
 3         6.70        3.00         5.00        1.70
 4         6.00        2.70         5.10        1.60
 5         6.00        3.40         4.50        1.60
 6         6.30        3.30         6.00        2.50
 7         5.80        2.70         5.10        1.90
 8         7.10        3.00         5.90        2.10
 9         6.30        2.90         5.60        1.80
10         6.50        3.00         5.80        2.20
# ... with 42 more rows
…
Podemos, de duas maneiras, modificar os nomes de todas as colunas:

iris %>% 
  select_all(.funs = toupper) # ou rename_all(toupper)

# A tibble: 150 x 5
   SEPAL.LENGTH SEPAL.WIDTH PETAL.LENGTH PETAL.WIDTH SPECIES
          <dbl>       <dbl>        <dbl>       <dbl> <fct>  
 1         5.10        3.50         1.40       0.200 setosa 
 2         4.90        3.00         1.40       0.200 setosa 
 3         4.70        3.20         1.30       0.200 setosa 
 4         4.60        3.10         1.50       0.200 setosa 
 5         5.00        3.60         1.40       0.200 setosa 
 6         5.40        3.90         1.70       0.400 setosa 
 7         4.60        3.40         1.40       0.300 setosa 
 8         5.00        3.40         1.50       0.200 setosa 
 9         4.40        2.90         1.40       0.200 setosa 
10         4.90        3.10         1.50       0.100 setosa 
# ... with 140 more rows
…
iris %>% 
  summarise_at(.vars = vars(-Species), .funs = mean)

# A tibble: 1 x 4
  Sepal.Length Sepal.Width Petal.Length Petal.Width
         <dbl>       <dbl>        <dbl>       <dbl>
1         5.84        3.06         3.76        1.20

Também podemos utilizar as help functions. Neste caso multiplicaremos por \(100\) as colunas que terminam com “Length”:

iris %>% 
  mutate_at(.vars = vars(ends_with("Length")), .funs =  funs(. * 100))

# A tibble: 150 x 5
   Sepal.Length Sepal.Width Petal.Length Petal.Width Species
          <dbl>       <dbl>        <dbl>       <dbl> <fct>  
 1         510.        3.50         140.       0.200 setosa 
 2         490.        3.00         140.       0.200 setosa 
 3         470.        3.20         130.       0.200 setosa 
 4         460.        3.10         150.       0.200 setosa 
 5         500.        3.60         140.       0.200 setosa 
 6         540.        3.90         170.       0.400 setosa 
 7         460.        3.40         140.       0.300 setosa 
 8         500.        3.40         150.       0.200 setosa 
 9         440.        2.90         140.       0.200 setosa 
10         490.        3.10         150.       0.100 setosa 
# ... with 140 more rows
…
