…
Começamos fazendo uma função muito simples, que apenas seleciona uma coluna passada como argumento. Vamos usar essa nossa função para selecionar a coluna Species, mas iremos passar o nome dessa coluna entre aspas.

seleciona <- function(dados, coluna){
  dados %>% 
    select(coluna)
}

seleciona(iris_tibble, "Species")

## Note: Using an external vector in selections is ambiguous.
## ℹ Use `all_of(coluna)` instead of `coluna` to silence this message.
## ℹ See <https://tidyselect.r-lib.org/reference/faq-external-vector.html>.
## This message is displayed once per session.

## # A tibble: 150 x 1
##    Species
##    <fct>  
##  1 setosa 
##  2 setosa 
##  3 setosa 
##  4 setosa 
##  5 setosa 
##  6 setosa 
##  7 setosa 
##  8 setosa 
##  9 setosa 
## 10 setosa 
## # … with 140 more rows
…
## <quosure>
## expr: ^1 + 1
## env:  global

Assim nós temos um objeto do tipo quosure. Então, aplicando no nosso problema, iremos precisar passar um quosure como argumento para a função, mas também teremos que dizer quando substituir a expressão da quosure por seu valor. Para isto, utilizaremos !!:

seleciona <- function(dados, coluna){
  dados %>% 
    select(!!coluna)
}

seleciona(iris_tibble, quo(Species))

## # A tibble: 150 x 1
##    Species
##    <fct>  
##  1 setosa 
##  2 setosa 
##  3 setosa 
##  4 setosa 
##  5 setosa 
##  6 setosa 
##  7 setosa 
##  8 setosa 
##  9 setosa 
## 10 setosa 
## # … with 140 more rows
…
  coluna <- enquo(coluna)
  
  print(coluna)
  
  dados %>% 
    select(!!coluna)
}

seleciona(iris_tibble, Species)

## <quosure>
## expr: ^Species
## env:  global

## # A tibble: 150 x 1
##    Species
##    <fct>  
##  1 setosa 
##  2 setosa 
##  3 setosa 
##  4 setosa 
##  5 setosa 
##  6 setosa 
##  7 setosa 
##  8 setosa 
##  9 setosa 
## 10 setosa 
## # … with 140 more rows
…
